condition,cpu_avg,cpu_median,cpu_max
JSBSim_1100,188.63157821981434,189.208,209.602
Single_Integrator_1100,175.82909678833644,186.759,205.914
Unicycle_1100,178.05721211403184,190.99200000000002,209.10399999999998
JSBSim_1400,188.98330390647527,189.571,213.608
Single_Integrator_1400,179.5228750660643,188.70099999999996,209.36000000000004
Unicycle_1400,182.33949554585837,194.275,219.42600000000002
JSBSim_1700,189.6196889279214,190.27799999999996,213.42600000000002
Single_Integrator_1700,184.22767676773634,192.776,214.81000000000003
Unicycle_1700,184.35799255497824,196.142,219.41199999999998
JSBSim_2000,189.84455572218843,190.60899999999998,213.286
Single_Integrator_2000,186.1082282151454,194.552,215.10200000000003
Unicycle_2000,186.2717777437086,196.866,222.30600000000004
JSBSim_200,170.05881427423034,182.35999999999999,216.67999999999998
Single_Integrator_200,146.058,167.66800000000003,184.67400000000004
Unicycle_200,153.2509506493506,170.66400000000002,192.29000000000002
JSBSim_500,187.01782392564604,187.67400000000004,206.86999999999998
Single_Integrator_500,160.65707217391304,174.36399999999998,194.62600000000003
Unicycle_500,163.41253830227745,180.098,202.31799999999998
JSBSim_800,187.71990758182537,188.245,207.748
Single_Integrator_800,169.16988082332762,181.344,196.91400000000002
Unicycle_800,173.3557522458629,187.92000000000002,209.10200000000003
